Traceback (most recent call last):
  File "/add_n.py", line 32, in <module>
    main()
  File "/add_n.py", line 29, in main
    increment(int(args.increment))
  File "/add_n.py", line 9, in increment
    with open('/data/input.txt', 'r') as f:
IOError: [Errno 2] No such file or directory: '/data/input.txt'
