Nov-29 14:03:36.246 [main] DEBUG nextflow.cli.Launcher - $> /home/joe/software/nextflow/nextflow run first_test.nf
Nov-29 14:03:36.344 [main] INFO  nextflow.cli.CmdRun - N E X T F L O W  ~  version 0.11.1
Nov-29 14:03:36.718 [main] DEBUG nextflow.Session - Session uuid: d9667d72-2620-4f82-a38f-fc7aab7d3c1f
Nov-29 14:03:36.722 [main] DEBUG nextflow.Session - Executor pool size: 3
Nov-29 14:03:36.754 [main] DEBUG nextflow.cli.CmdRun - 
  Version: 0.11.1 build 2357
  Modified: 11-11-2014 08:47 UTC (02:47 CDT)
  System: Linux 3.13.0-32-generic
  Runtime: Groovy 2.3.7 on OpenJDK 64-Bit Server VM 1.7.0_55-b14
  Encoding: UTF-8 (UTF-8)
  Address: joe-3570R-370R-470R-450R-510R-4450RV [127.0.1.1]

Nov-29 14:03:36.772 [main] DEBUG nextflow.Session - Session start > phaser register (session)
Nov-29 14:03:36.787 [main] DEBUG nextflow.processor.TaskDispatcher - Dispatcher > start
Nov-29 14:03:36.788 [main] DEBUG nextflow.script.ScriptRunner - > Script parsing
Nov-29 14:03:37.108 [main] DEBUG nextflow.script.ScriptRunner - > Launching execution
Nov-29 14:03:37.272 [main] DEBUG nextflow.processor.ProcessFactory - << taskConfig executor: null
Nov-29 14:03:37.272 [main] DEBUG nextflow.processor.ProcessFactory - >> processorType: 'local'
Nov-29 14:03:37.288 [main] DEBUG nextflow.executor.Executor - Initializing executor: local
Nov-29 14:03:37.293 [main] INFO  nextflow.executor.Executor - [warm up] executor > local
Nov-29 14:03:37.343 [main] DEBUG n.processor.TaskPollingMonitor - Creating task monitor for executor 'local' > capacity: 3; pollInterval: 100ms; dumpInterval: 5m 
Nov-29 14:03:37.358 [main] DEBUG nextflow.processor.TaskDispatcher - Starting monitor: TaskPollingMonitor
Nov-29 14:03:37.359 [main] DEBUG n.processor.TaskPollingMonitor - >>> phaser register (scheduler)
Nov-29 14:03:37.375 [main] DEBUG nextflow.executor.Executor - Invoke register for executor: local
Nov-29 14:03:37.497 [main] DEBUG nextflow.script.BaseParam - output > channel unknown: add_output -- creating a new instance
Nov-29 14:03:37.549 [main] DEBUG n.processor.ParallelTaskProcessor - Creating operator > add_n -- maxForks: 3
Nov-29 14:03:37.575 [main] DEBUG nextflow.Session - >>> phaser register (process)
Nov-29 14:03:37.591 [main] DEBUG nextflow.processor.ProcessFactory - << taskConfig executor: null
Nov-29 14:03:37.591 [main] DEBUG nextflow.processor.ProcessFactory - >> processorType: 'local'
Nov-29 14:03:37.592 [main] DEBUG nextflow.executor.Executor - Initializing executor: local
Nov-29 14:03:37.593 [main] DEBUG nextflow.script.BaseParam - output > channel unknown: rename_out -- creating a new instance
Nov-29 14:03:37.616 [main] DEBUG n.processor.ParallelTaskProcessor - Creating operator > rename -- maxForks: 3
Nov-29 14:03:37.626 [main] DEBUG nextflow.Session - >>> phaser register (process)
Nov-29 14:03:37.630 [main] DEBUG nextflow.processor.ProcessFactory - << taskConfig executor: null
Nov-29 14:03:37.630 [main] DEBUG nextflow.processor.ProcessFactory - >> processorType: 'local'
Nov-29 14:03:37.631 [main] DEBUG nextflow.executor.Executor - Initializing executor: local
Nov-29 14:03:37.633 [main] DEBUG nextflow.script.BaseParam - output > channel unknown: mult_out -- creating a new instance
Nov-29 14:03:37.656 [main] DEBUG n.processor.ParallelTaskProcessor - Creating operator > mult_n -- maxForks: 3
Nov-29 14:03:37.657 [main] DEBUG nextflow.Session - >>> phaser register (process)
Nov-29 14:03:37.657 [main] DEBUG nextflow.script.ScriptRunner - > Await termination 
Nov-29 14:03:37.765 [Actor Thread 3] DEBUG nextflow.Session - Script base path does not exist or is not a directory: /home/joe/bitbucket-repos/docker_fun/nextflow/bin
Nov-29 14:03:37.851 [Actor Thread 3] INFO  nextflow.processor.TaskDispatcher - [7d/116937] Submitted process > add_n (1)
Nov-29 14:03:38.509 [Actor Thread 2] DEBUG nextflow.processor.TaskProcessor - <add_n> Sending poison pills and terminating process
Nov-29 14:03:38.515 [Actor Thread 3] DEBUG n.processor.ParallelTaskProcessor - <rename> Poison pill arrived
Nov-29 14:03:38.518 [Actor Thread 2] DEBUG nextflow.Session - <<< phaser deregister (process)
Nov-29 14:03:38.519 [Actor Thread 1] DEBUG n.processor.ParallelTaskProcessor - <add_n> After stop -- shareObjs [:]
Nov-29 14:03:38.522 [Actor Thread 5] DEBUG nextflow.processor.StateObj - <rename> State before poison: StateObj[submitted: 1; completed: 0; poisoned: false; allScalar: false]
Nov-29 14:03:38.562 [Actor Thread 4] INFO  nextflow.processor.TaskDispatcher - [b1/ec8174] Submitted process > rename (1)
Nov-29 14:03:38.578 [Actor Thread 5] DEBUG nextflow.processor.TaskProcessor - <rename> Sending poison pills and terminating process
Nov-29 14:03:38.579 [Actor Thread 5] DEBUG nextflow.Session - <<< phaser deregister (process)
Nov-29 14:03:38.580 [Actor Thread 1] DEBUG n.processor.ParallelTaskProcessor - <rename> After stop -- shareObjs [:]
Nov-29 14:03:38.580 [Actor Thread 4] DEBUG n.processor.ParallelTaskProcessor - <mult_n> Poison pill arrived
Nov-29 14:03:38.581 [Actor Thread 5] DEBUG nextflow.processor.StateObj - <mult_n> State before poison: StateObj[submitted: 1; completed: 0; poisoned: false; allScalar: false]
Nov-29 14:03:38.598 [Actor Thread 3] INFO  nextflow.processor.TaskDispatcher - [43/ce78e5] Submitted process > mult_n (1)
Nov-29 14:03:39.299 [Actor Thread 5] DEBUG nextflow.processor.TaskProcessor - <mult_n> Sending poison pills and terminating process
Nov-29 14:03:39.299 [Actor Thread 5] DEBUG nextflow.Session - <<< phaser deregister (process)
Nov-29 14:03:39.300 [Actor Thread 3] DEBUG n.processor.ParallelTaskProcessor - <mult_n> After stop -- shareObjs [:]
Nov-29 14:03:39.300 [main] DEBUG nextflow.Session - <<< phaser deregister (session)
Nov-29 14:03:39.396 [Thread-2] DEBUG n.processor.TaskPollingMonitor - <<< phaser de-register (scheduler)
Nov-29 14:03:39.397 [main] DEBUG nextflow.Session - Session await > done
Nov-29 14:03:39.413 [main] DEBUG nextflow.Session - Session destroyed
