Nov-29 14:02:27.570 [main] DEBUG nextflow.cli.Launcher - $> /home/joe/software/nextflow/nextflow run first_test.nf
Nov-29 14:02:27.653 [main] INFO  nextflow.cli.CmdRun - N E X T F L O W  ~  version 0.11.1
Nov-29 14:02:28.037 [main] DEBUG nextflow.Session - Session uuid: e6b41d11-bafd-415f-9839-14f474b4bfba
Nov-29 14:02:28.042 [main] DEBUG nextflow.Session - Executor pool size: 3
Nov-29 14:02:28.074 [main] DEBUG nextflow.cli.CmdRun - 
  Version: 0.11.1 build 2357
  Modified: 11-11-2014 08:47 UTC (02:47 CDT)
  System: Linux 3.13.0-32-generic
  Runtime: Groovy 2.3.7 on OpenJDK 64-Bit Server VM 1.7.0_55-b14
  Encoding: UTF-8 (UTF-8)
  Address: joe-3570R-370R-470R-450R-510R-4450RV [127.0.1.1]

Nov-29 14:02:28.093 [main] DEBUG nextflow.Session - Session start > phaser register (session)
Nov-29 14:02:28.108 [main] DEBUG nextflow.processor.TaskDispatcher - Dispatcher > start
Nov-29 14:02:28.110 [main] DEBUG nextflow.script.ScriptRunner - > Script parsing
Nov-29 14:02:28.458 [main] DEBUG nextflow.script.ScriptRunner - > Launching execution
Nov-29 14:02:28.629 [main] DEBUG nextflow.processor.ProcessFactory - << taskConfig executor: null
Nov-29 14:02:28.629 [main] DEBUG nextflow.processor.ProcessFactory - >> processorType: 'local'
Nov-29 14:02:28.646 [main] DEBUG nextflow.executor.Executor - Initializing executor: local
Nov-29 14:02:28.650 [main] INFO  nextflow.executor.Executor - [warm up] executor > local
Nov-29 14:02:28.701 [main] DEBUG n.processor.TaskPollingMonitor - Creating task monitor for executor 'local' > capacity: 3; pollInterval: 100ms; dumpInterval: 5m 
Nov-29 14:02:28.717 [main] DEBUG nextflow.processor.TaskDispatcher - Starting monitor: TaskPollingMonitor
Nov-29 14:02:28.718 [main] DEBUG n.processor.TaskPollingMonitor - >>> phaser register (scheduler)
Nov-29 14:02:28.734 [main] DEBUG nextflow.executor.Executor - Invoke register for executor: local
Nov-29 14:02:28.861 [main] DEBUG nextflow.script.BaseParam - output > channel unknown: add_output -- creating a new instance
Nov-29 14:02:28.911 [main] DEBUG n.processor.ParallelTaskProcessor - Creating operator > add_n -- maxForks: 3
Nov-29 14:02:28.937 [main] DEBUG nextflow.Session - >>> phaser register (process)
Nov-29 14:02:28.954 [main] DEBUG nextflow.processor.ProcessFactory - << taskConfig executor: null
Nov-29 14:02:28.954 [main] DEBUG nextflow.processor.ProcessFactory - >> processorType: 'local'
Nov-29 14:02:28.954 [main] DEBUG nextflow.executor.Executor - Initializing executor: local
Nov-29 14:02:28.956 [main] DEBUG nextflow.script.BaseParam - output > channel unknown: rename_out -- creating a new instance
Nov-29 14:02:28.977 [main] DEBUG n.processor.ParallelTaskProcessor - Creating operator > rename -- maxForks: 3
Nov-29 14:02:28.989 [main] DEBUG nextflow.Session - >>> phaser register (process)
Nov-29 14:02:28.993 [main] DEBUG nextflow.processor.ProcessFactory - << taskConfig executor: null
Nov-29 14:02:28.994 [main] DEBUG nextflow.processor.ProcessFactory - >> processorType: 'local'
Nov-29 14:02:28.995 [main] DEBUG nextflow.executor.Executor - Initializing executor: local
Nov-29 14:02:28.997 [main] DEBUG nextflow.script.BaseParam - output > channel unknown: mult_out -- creating a new instance
Nov-29 14:02:29.021 [main] DEBUG n.processor.ParallelTaskProcessor - Creating operator > mult_n -- maxForks: 3
Nov-29 14:02:29.022 [main] DEBUG nextflow.Session - >>> phaser register (process)
Nov-29 14:02:29.022 [main] DEBUG nextflow.script.ScriptRunner - > Await termination 
Nov-29 14:02:29.102 [Actor Thread 3] DEBUG nextflow.Session - Script base path does not exist or is not a directory: /home/joe/bitbucket-repos/docker_fun/nextflow/bin
Nov-29 14:02:29.181 [Actor Thread 3] INFO  nextflow.processor.TaskDispatcher - [44/0de058] Submitted process > add_n (1)
Nov-29 14:02:30.430 [Actor Thread 2] DEBUG nextflow.processor.TaskProcessor - <add_n> Sending poison pills and terminating process
Nov-29 14:02:30.436 [Actor Thread 3] DEBUG n.processor.ParallelTaskProcessor - <rename> Poison pill arrived
Nov-29 14:02:30.438 [Actor Thread 2] DEBUG nextflow.Session - <<< phaser deregister (process)
Nov-29 14:02:30.442 [Actor Thread 1] DEBUG n.processor.ParallelTaskProcessor - <add_n> After stop -- shareObjs [:]
Nov-29 14:02:30.443 [Actor Thread 5] DEBUG nextflow.processor.StateObj - <rename> State before poison: StateObj[submitted: 1; completed: 0; poisoned: false; allScalar: false]
Nov-29 14:02:30.477 [Actor Thread 4] INFO  nextflow.processor.TaskDispatcher - [8b/9fdcbe] Submitted process > rename (1)
Nov-29 14:02:30.567 [Thread-2] ERROR nextflow.processor.TaskProcessor - Error executing process > 'rename (1)'

Caused by:
  Process 'rename (1)' terminated with an error exit status

Command executed:

  mkdir /home/joe/bitbucket-repos/docker_fun/nextflow/rename; cp output.txt /home/joe/bitbucket-repos/docker_fun/nextflow/rename/input

Command exit status:
  1

Command output:
  mkdir: cannot create directory ‘/home/joe/bitbucket-repos/docker_fun/nextflow/rename’: File exists

Work dir:
  /home/joe/bitbucket-repos/docker_fun/nextflow/work/8b/9fdcbe7c8da3848de3d4da16b5dde0

Tip: you can replicate the issue by changing to the process work dir and entering the command: 'bash .command.run'
nextflow.exception.ProcessFailedException: Process 'rename (1)' terminated with an error exit status
	at sun.reflect.NativeConstructorAccessorImpl.newInstance0(Native Method) ~[na:1.7.0_55]
	at sun.reflect.NativeConstructorAccessorImpl.newInstance(NativeConstructorAccessorImpl.java:57) ~[na:1.7.0_55]
	at sun.reflect.DelegatingConstructorAccessorImpl.newInstance(DelegatingConstructorAccessorImpl.java:45) ~[na:1.7.0_55]
	at java.lang.reflect.Constructor.newInstance(Constructor.java:526) ~[na:1.7.0_55]
	at org.codehaus.groovy.reflection.CachedConstructor.invoke(CachedConstructor.java:77) ~[groovy-2.3.7.jar:2.3.7]
	at org.codehaus.groovy.reflection.CachedConstructor.doConstructorInvoke(CachedConstructor.java:71) ~[groovy-2.3.7.jar:2.3.7]
	at org.codehaus.groovy.runtime.callsite.ConstructorSite$ConstructorSiteNoUnwrap.callConstructor(ConstructorSite.java:81) ~[groovy-2.3.7.jar:2.3.7]
	at org.codehaus.groovy.runtime.callsite.CallSiteArray.defaultCallConstructor(CallSiteArray.java:57) [groovy-2.3.7.jar:2.3.7]
	at org.codehaus.groovy.runtime.callsite.AbstractCallSite.callConstructor(AbstractCallSite.java:182) [groovy-2.3.7.jar:2.3.7]
	at org.codehaus.groovy.runtime.callsite.AbstractCallSite.callConstructor(AbstractCallSite.java:190) [groovy-2.3.7.jar:2.3.7]
	at nextflow.processor.TaskProcessor.finalizeTask(TaskProcessor.groovy:1336) ~[nextflow-0.11.1.jar:na]
	at sun.reflect.NativeMethodAccessorImpl.invoke0(Native Method) ~[na:1.7.0_55]
	at sun.reflect.NativeMethodAccessorImpl.invoke(NativeMethodAccessorImpl.java:57) ~[na:1.7.0_55]
	at sun.reflect.DelegatingMethodAccessorImpl.invoke(DelegatingMethodAccessorImpl.java:43) ~[na:1.7.0_55]
	at java.lang.reflect.Method.invoke(Method.java:606) ~[na:1.7.0_55]
	at org.codehaus.groovy.runtime.callsite.PogoMetaMethodSite$PogoCachedMethodSiteNoUnwrapNoCoerce.invoke(PogoMetaMethodSite.java:207) [groovy-2.3.7.jar:2.3.7]
	at org.codehaus.groovy.runtime.callsite.PogoMetaMethodSite.call(PogoMetaMethodSite.java:68) [groovy-2.3.7.jar:2.3.7]
	at org.codehaus.groovy.runtime.callsite.AbstractCallSite.call(AbstractCallSite.java:116) [groovy-2.3.7.jar:2.3.7]
	at nextflow.processor.TaskPollingMonitor.checkTaskStatus(TaskPollingMonitor.groovy:479) [nextflow-0.11.1.jar:na]
	at sun.reflect.NativeMethodAccessorImpl.invoke0(Native Method) ~[na:1.7.0_55]
	at sun.reflect.NativeMethodAccessorImpl.invoke(NativeMethodAccessorImpl.java:57) ~[na:1.7.0_55]
	at sun.reflect.DelegatingMethodAccessorImpl.invoke(DelegatingMethodAccessorImpl.java:43) ~[na:1.7.0_55]
	at java.lang.reflect.Method.invoke(Method.java:606) ~[na:1.7.0_55]
	at org.codehaus.groovy.runtime.callsite.PogoMetaMethodSite$PogoCachedMethodSiteNoUnwrapNoCoerce.invoke(PogoMetaMethodSite.java:207) [groovy-2.3.7.jar:2.3.7]
	at org.codehaus.groovy.runtime.callsite.PogoMetaMethodSite.callCurrent(PogoMetaMethodSite.java:56) [groovy-2.3.7.jar:2.3.7]
	at org.codehaus.groovy.runtime.callsite.AbstractCallSite.callCurrent(AbstractCallSite.java:141) [groovy-2.3.7.jar:2.3.7]
	at nextflow.processor.TaskPollingMonitor.checkAllTasks(TaskPollingMonitor.groovy:382) [nextflow-0.11.1.jar:na]
	at sun.reflect.GeneratedMethodAccessor9.invoke(Unknown Source) ~[na:na]
	at sun.reflect.DelegatingMethodAccessorImpl.invoke(DelegatingMethodAccessorImpl.java:43) ~[na:1.7.0_55]
	at java.lang.reflect.Method.invoke(Method.java:606) ~[na:1.7.0_55]
	at org.codehaus.groovy.runtime.callsite.PogoMetaMethodSite$PogoCachedMethodSiteNoUnwrapNoCoerce.invoke(PogoMetaMethodSite.java:207) [groovy-2.3.7.jar:2.3.7]
	at org.codehaus.groovy.runtime.callsite.PogoMetaMethodSite.callCurrent(PogoMetaMethodSite.java:56) [groovy-2.3.7.jar:2.3.7]
	at org.codehaus.groovy.runtime.callsite.AbstractCallSite.callCurrent(AbstractCallSite.java:137) [groovy-2.3.7.jar:2.3.7]
	at nextflow.processor.TaskPollingMonitor.pollLoop(TaskPollingMonitor.groovy:328) [nextflow-0.11.1.jar:na]
	at sun.reflect.NativeMethodAccessorImpl.invoke0(Native Method) ~[na:1.7.0_55]
	at sun.reflect.NativeMethodAccessorImpl.invoke(NativeMethodAccessorImpl.java:57) ~[na:1.7.0_55]
	at sun.reflect.DelegatingMethodAccessorImpl.invoke(DelegatingMethodAccessorImpl.java:43) ~[na:1.7.0_55]
	at java.lang.reflect.Method.invoke(Method.java:606) ~[na:1.7.0_55]
	at org.codehaus.groovy.reflection.CachedMethod.invoke(CachedMethod.java:90) [groovy-2.3.7.jar:2.3.7]
	at groovy.lang.MetaMethod.doMethodInvoke(MetaMethod.java:324) [groovy-2.3.7.jar:2.3.7]
	at org.codehaus.groovy.runtime.metaclass.ClosureMetaClass.invokeMethod(ClosureMetaClass.java:368) [groovy-2.3.7.jar:2.3.7]
	at groovy.lang.MetaClassImpl.invokeMethod(MetaClassImpl.java:1016) [groovy-2.3.7.jar:2.3.7]
	at org.codehaus.groovy.runtime.callsite.PogoMetaClassSite.callCurrent(PogoMetaClassSite.java:66) [groovy-2.3.7.jar:2.3.7]
	at org.codehaus.groovy.runtime.callsite.CallSiteArray.defaultCallCurrent(CallSiteArray.java:49) [groovy-2.3.7.jar:2.3.7]
	at org.codehaus.groovy.runtime.callsite.AbstractCallSite.callCurrent(AbstractCallSite.java:133) [groovy-2.3.7.jar:2.3.7]
	at org.codehaus.groovy.runtime.callsite.AbstractCallSite.callCurrent(AbstractCallSite.java:137) [groovy-2.3.7.jar:2.3.7]
	at nextflow.processor.TaskPollingMonitor$_start_closure8.doCall(TaskPollingMonitor.groovy:302) [nextflow-0.11.1.jar:na]
	at nextflow.processor.TaskPollingMonitor$_start_closure8.doCall(TaskPollingMonitor.groovy) [nextflow-0.11.1.jar:na]
	at sun.reflect.NativeMethodAccessorImpl.invoke0(Native Method) ~[na:1.7.0_55]
	at sun.reflect.NativeMethodAccessorImpl.invoke(NativeMethodAccessorImpl.java:57) ~[na:1.7.0_55]
	at sun.reflect.DelegatingMethodAccessorImpl.invoke(DelegatingMethodAccessorImpl.java:43) ~[na:1.7.0_55]
	at java.lang.reflect.Method.invoke(Method.java:606) ~[na:1.7.0_55]
	at org.codehaus.groovy.reflection.CachedMethod.invoke(CachedMethod.java:90) [groovy-2.3.7.jar:2.3.7]
	at groovy.lang.MetaMethod.doMethodInvoke(MetaMethod.java:324) [groovy-2.3.7.jar:2.3.7]
	at org.codehaus.groovy.runtime.metaclass.ClosureMetaClass.invokeMethod(ClosureMetaClass.java:278) [groovy-2.3.7.jar:2.3.7]
	at groovy.lang.MetaClassImpl.invokeMethod(MetaClassImpl.java:1016) [groovy-2.3.7.jar:2.3.7]
	at groovy.lang.Closure.call(Closure.java:423) [groovy-2.3.7.jar:2.3.7]
	at groovy.lang.Closure.call(Closure.java:417) [groovy-2.3.7.jar:2.3.7]
	at groovy.lang.Closure.run(Closure.java:504) [groovy-2.3.7.jar:2.3.7]
	at java.lang.Thread.run(Thread.java:744) [na:1.7.0_55]
Nov-29 14:02:30.589 [Thread-2] DEBUG nextflow.Session - Session abort -- terminating all processors
Nov-29 14:02:30.590 [Actor Thread 5] DEBUG nextflow.processor.TaskProcessor - <rename> Sending poison pills and terminating process
Nov-29 14:02:30.591 [Actor Thread 5] DEBUG nextflow.Session - <<< phaser deregister (process)
Nov-29 14:02:30.592 [Actor Thread 4] DEBUG n.processor.ParallelTaskProcessor - <rename> After stop -- shareObjs [:]
Nov-29 14:02:30.592 [Actor Thread 1] DEBUG n.processor.ParallelTaskProcessor - <mult_n> After stop -- shareObjs [:]
Nov-29 14:02:30.592 [main] DEBUG nextflow.Session - <<< phaser deregister (session)
